simulation/pipeline.vcd
$date
	Tue Mar 11 23:03:40 2025
$end
$version
	Icarus Verilog
$end
$timescale
	1s
$end
$scope module testbench $end
$scope module pipe $end
$var wire 1 ! clk $end
$var wire 32 " dmem_read_data [31:0] $end
$var wire 32 # dmem_read_data_temp [31:0] $end
$var wire 1 $ dmem_read_ready $end
$var wire 1 % dmem_read_valid $end
$var wire 1 & dmem_read_valid_checker $end
$var wire 4 ' dmem_write_byte [3:0] $end
$var wire 32 ( dmem_write_data [31:0] $end
$var wire 1 ) dmem_write_ready $end
$var wire 1 * dmem_write_valid $end
$var wire 32 + inst_mem_address [31:0] $end
$var wire 1 , inst_mem_is_valid $end
$var wire 32 - inst_mem_read_data [31:0] $end
$var wire 1 . reset $end
$var wire 1 / stall $end
$var wire 32 0 write_address [31:0] $end
$var wire 1 1 wb_stall $end
$var wire 33 2 result_subu [32:0] $end
$var wire 33 3 result_subs [32:0] $end
$var wire 32 4 reg_rdata2 [31:0] $end
$var wire 32 5 reg_rdata1 [31:0] $end
$var wire 32 6 instruction [31:0] $end
$var wire 1 7 inst_mem_is_ready $end
$var wire 1 8 exception $end
$var wire 32 9 dmem_write_address [31:0] $end
$var wire 32 : dmem_read_address [31:0] $end
$var wire 1 ; branch_stall $end
$var wire 32 < alu_operand2 [31:0] $end
$var wire 32 = alu_operand1 [31:0] $end
$var reg 1 > alu $end
$var reg 3 ? alu_operation [2:0] $end
$var reg 1 @ arithsubtype $end
$var reg 1 A branch $end
$var reg 1 B branch_custom $end
$var reg 1 C branch_taken $end
$var reg 1 D custom $end
$var reg 5 E dest_reg_sel [4:0] $end
$var reg 32 F execute_immediate [31:0] $end
$var reg 32 G fetch_pc [31:0] $end
$var reg 1 H illegal_inst $end
$var reg 32 I immediate [31:0] $end
$var reg 1 J immediate_sel $end
$var reg 32 K inst_fetch_pc [31:0] $end
$var reg 1 L jal $end
$var reg 1 M jalr $end
$var reg 1 N lui $end
$var reg 1 O mem_to_reg $end
$var reg 1 P mem_write $end
$var reg 32 Q next_pc [31:0] $end
$var reg 32 R pc [31:0] $end
$var reg 32 S result [31:0] $end
$var reg 5 T src1_select [4:0] $end
$var reg 5 U src2_select [4:0] $end
$var reg 1 V stall_read $end
$var reg 1 W teste $end
$var reg 3 X wb_alu_operation [2:0] $end
$var reg 1 Y wb_alu_to_reg $end
$var reg 1 Z wb_branch $end
$var reg 1 [ wb_branch_nxt $end
$var reg 5 \ wb_dest_reg_sel [4:0] $end
$var reg 1 ] wb_mem_to_reg $end
$var reg 1 ^ wb_mem_write $end
$var reg 2 _ wb_read_address [1:0] $end
$var reg 32 ` wb_read_data [31:0] $end
$var reg 32 a wb_result [31:0] $end
$var reg 1 b wb_stall_first $end
$var reg 1 c wb_stall_second $end
$var reg 32 d wb_write_address [31:0] $end
$var reg 4 e wb_write_byte [3:0] $end
$var reg 32 f wb_write_data [31:0] $end
$scope module IF_ID $end
$var wire 1 ! clk $end
$var wire 1 , inst_mem_is_valid $end
$var wire 32 g inst_mem_read_data [31:0] $end
$var wire 1 . reset $end
$var wire 1 / stall $end
$var reg 1 8 exception $end
$var integer 32 h i [31:0] $end
$upscope $end
$scope module execute $end
$var wire 1 ! clk $end
$var wire 1 . reset $end
$scope function set_operand $end
$var reg 32 i data [31:0] $end
$var reg 8 j value [7:0] $end
$upscope $end
$upscope $end
$scope module wb $end
$var wire 1 ! clk $end
$var wire 1 . reset $end
$upscope $end
$upscope $end
$upscope $end
$enddefinitions $end
#0
$dumpvars
bx j
bx i
b100000 h
bx g
b0 f
b0 e
b0 d
0c
0b
b0 a
bx `
b0 _
0^
0]
b0 \
0[
0Z
0Y
b0 X
0W
1V
b0 U
b0 T
bx S
b0 R
b100 Q
0P
0O
xN
0M
0L
b0 K
0J
b0 I
0H
b0 G
b0 F
b0 E
0D
0C
0B
0A
0@
b0 ?
0>
b0 =
b0 <
0;
b0 :
b0 9
08
07
b10011 6
b0 5
b0 4
b0 3
b0 2
01
b0 0
1/
0.
bx -
1,
b0 +
1*
0)
b0 (
b0 '
1&
1%
0$
bx #
bx "
1!
$end
#10
0!
#20
b11111110000000010000000100010011 -
b11111110000000010000000100010011 g
b100000 h
1!
#30
0!
#40
b100000 h
1!
#50
0!
#60
b100000 h
1!
#70
0!
#80
b100000 h
1!
#90
0!
#100
b100000 h
1!
#110
0!
#120
b100000 h
1!
#130
0!
#140
b100000 h
1!
#150
0!
#160
b100000 h
1!
#170
0!
#180
1.
b100000 h
1!
#190
0!
#200
1!
#210
0!
#220
1!
#230
0!
#240
1!
#250
0!
#260
1!
#270
0!
#280
1!
#290
0!
#300
1!
#310
0!
#320
1!
#330
0!
#340
1!
#350
0!
#360
1!
#370
0!
#380
0/
1!
#390
0!
#400
b11111111111111111111111111100000 I
b11111110000000010000000100010011 6
17
0V
1!
#410
0!
#420
b111111111111 =
b111111111111 5
b1000000011111 3
b100000000000000000001000000011111 2
b11111111111111111111111111100000 <
b111111011111 S
0C
b1000 Q
xY
bx a
b100 +
b100 G
b10 E
b10 T
0N
1>
1J
b111111011111 :
b111111011111 0
b11111111111111111111111111100000 F
1!
#430
0!
#440
b111110111111 S
b111111111111 3
b100000000000000000000111111111111 2
b111110111111 0
b111110111111 :
b111111011111 =
b111111011111 5
b11100 I
b100000010010111000100011 6
0C
b1100 Q
b100000010010111000100011 -
b100000010010111000100011 g
b1000 +
b1000 G
b11 _
b10 \
1Y
b111111011111 a
b100 K
1!
#450
0!
#460
b111110111111 =
b111110111111 5
b100000 I
b10000000010000010000010011 6
b111110111111 3
b111110111111 2
b0 <
b0 S
0C
b10000 Q
b10000000010000010000010011 -
b10000000010000010000010011 g
b1000 K
b111110111111 a
b1100 +
b1100 G
1P
b10 ?
b11100 E
b1000 U
b100 R
0>
0J
b111111011011 :
b111111011011 0
b11100 F
1!
#470
0!
#480
b1010 I
b101000000000011110010011 6
b111110011111 3
b111110011111 2
b100000 <
b111111011111 S
0C
b10100 Q
b101000000000011110010011 -
b101000000000011110010011 g
0P
b0 ?
b1000 E
b0 U
b1000 R
1>
1J
b111111011111 :
b111111011111 0
b100000 F
b10000 +
b10000 G
b10 X
b11100 \
0Y
1)
1^
b0 a
b1100 K
b1111 '
b1111 e
b111111011011 9
b111111011011 d
1!
#490
0!
#500
b11111111111111111111111111101000 I
b1010 S
b11111110111101000010010000100011 6
b0 =
b0 5
b111111111111111111111111111110110 3
b111111111111111111111111111110110 2
b1010 <
0C
b11000 Q
b11111110111101000010010000100011 -
b11111110111101000010010000100011 g
b10000 K
b0 X
b1000 \
1Y
0)
0^
b111111011111 a
b10100 +
b10100 G
b1111 E
b1010 U
b0 T
b1100 R
b1010 :
b1010 0
b1010 F
1!
#510
0!
#520
b1010 4
b10100 I
b1010 S
b1010000000000011110010011 6
b111111011111 =
b111111011111 5
b111111010101 3
b111111010101 2
b1010 <
0C
b11100 Q
b1010000000000011110010011 -
b1010000000000011110010011 g
1P
1@
b10 ?
b1000 E
b1111 U
b1000 T
b10000 R
0>
0J
b111111000111 :
b111111000111 0
b11111111111111111111111111101000 F
b11000 +
b11000 G
b10 _
b1111 \
b1010 a
b10100 K
1!
#530
0!
#540
b0 4
b11111111111111111111111111100100 I
b11111110111101000010001000100011 6
b0 =
b0 5
b111111111111111111111111111101100 3
b111111111111111111111111111101100 2
b10100 <
b10100 S
0C
b100000 Q
b11111110111101000010001000100011 -
b11111110111101000010001000100011 g
b1010 (
b1010 f
b111111000111 9
b111111000111 d
b11000 K
b10 X
b11 _
b1000 \
0Y
1)
1^
b11100 +
b11100 G
0P
0@
b0 ?
b1111 E
b10100 U
b0 T
b10100 R
1>
1J
b10100 :
b10100 0
b10100 F
1!
#550
0!
#560
b11111111111111111111111111100100 I
b10100 4
b10100 S
b11111110010001000010011110000011 6
b111111011111 =
b111111011111 5
b111111001011 3
b111111001011 2
b10100 <
0C
b100100 Q
b11111110010001000010011110000011 -
b11111110010001000010011110000011 g
1P
1@
b10 ?
b100 E
b1111 U
b1000 T
b11000 R
0>
0J
b111111000011 :
b111111000011 0
b11111111111111111111111111100100 F
b100000 +
b100000 G
b0 X
b0 _
b1111 \
1Y
0)
0^
b10100 a
b11100 K
1!
#570
0!
#580
b0 4
b1 I
b101111001011110010011 6
bx S
0C
b101000 Q
b111111111011 3
b100000000000000000000111111111011 2
b11111111111111111111111111100100 <
b101111001011110010011 -
b101111001011110010011 g
b10100 (
b10100 f
b111111000011 9
b111111000011 d
b100000 K
b10 X
b11 _
b100 \
0Y
1)
1^
b100100 +
b100100 G
1$
1O
0P
b1111 E
b100 U
b11100 R
1J
1!
#590
0!
#600
b11111111111111111111111111101000 I
b10100 =
b10100 5
b10100 `
b11111110100001000010011100000011 6
b10011 3
b10011 2
b1 <
b101000 S
0C
b101100 Q
b10100 "
b10100 #
b11111110100001000010011100000011 -
b11111110100001000010011100000011 g
0$
0O
0@
b1 ?
b1 U
b1111 T
b100000 R
1>
b10101 :
b10101 0
b1 F
b101000 +
b101000 G
1]
b1111 \
1Y
0)
0^
bx a
b100100 K
1!
#610
0!
#620
b111111011111 =
b111111011111 5
b0 I
b111111011111 4
b111101110000011110110011 6
b111111110111 3
b100000000000000000000111111110111 2
b11111111111111111111111111101000 <
bx S
0C
b110000 Q
b111101110000011110110011 -
b111101110000011110110011 g
b101000 K
b1 X
b1 _
0]
b101000 a
b101100 +
b101100 G
1$
1O
1@
b10 ?
b1110 E
b1000 U
b1000 T
b100100 R
0>
b111111000111 :
b111111000111 0
b11111111111111111111111111101000 F
1!
#630
0!
#640
b11111111111111111111111111101100 I
b101000 4
b1010 =
b1010 5
b11111110111101000010011000100011 6
b111111111111111111111111111100010 3
b111111111111111111111111111100010 2
b101000 <
b110010 S
0C
b110100 Q
b1010 `
b1010 "
b1010 #
b11111110111101000010011000100011 -
b11111110111101000010011000100011 g
0$
0O
0@
b0 ?
b1111 E
b1111 U
b1110 T
b101000 R
1>
0J
b1010 :
b1010 0
b0 F
b110000 +
b110000 G
b10 X
b11 _
1]
b1110 \
bx a
b101100 K
1!
#650
0!
#660
b110010 <
b110010 4
b111110101101 3
b111110101101 2
b111111011111 =
b111111011111 5
b11111111111111111111111111101100 I
b11111110110001000010011100000011 6
b0 `
b110010 S
0C
b111000 Q
b11111110110001000010011100000011 -
b11111110110001000010011100000011 g
b110000 K
b0 X
b10 _
0]
b1111 \
b110010 a
b110100 +
b110100 G
1P
1@
b10 ?
b1100 E
b1000 T
b101100 R
0>
b111111001011 :
b111111001011 0
b11111111111111111111111111101100 F
1!
#670
0!
#680
b0 4
b110010 I
b11001000000000011110010011 6
bx S
b111111110011 3
b100000000000000000000111111110011 2
b11111111111111111111111111101100 <
0C
b111100 Q
b1010 `
b11001000000000011110010011 -
b11001000000000011110010011 g
1$
1O
0P
b1110 E
b1100 U
b110000 R
1J
b111000 +
b111000 G
b10 X
b11 _
b1100 \
0Y
1)
1^
b110100 K
b110010 (
b110010 f
b111111001011 9
b111111001011 d
1!
#690
0!
#700
b1100 I
b111001111101011000110101 6
b110010 `
b0 =
b0 5
b111111111111111111111111111001110 3
b111111111111111111111111111001110 2
b110010 <
b110010 S
0C
b1000000 Q
b111001111101011000110101 -
b111001111101011000110101 g
b110010 "
b110010 #
b111000 K
1]
b1110 \
1Y
0)
0^
bx a
b111100 +
b111100 G
0$
0O
0@
b0 ?
b1111 E
b10010 U
b0 T
b110100 R
1>
b110010 :
b110010 0
b110010 F
1!
#710
0!
#720
b1000110 I
b110010 4
b100011000000000011110010011 6
b110010 =
b110010 5
b0 3
b0 2
b110010 <
bx S
1W
1C
b1000100 Q
b0 `
b100011000000000011110010011 -
b100011000000000011110010011 g
b101 ?
b1100 E
b1110 U
b1111 T
b111000 R
1B
0>
0J
b111110 :
b111110 0
b1100 F
b1000000 +
b1000000 G
b0 X
b10 _
0]
b1111 \
b110010 a
b111100 K
1!
#730
0!
#740
b11111111111111111111111111101100 I
b0 4
b11111110111101000010011000100011 6
1;
b0 =
b0 5
b111111111111111111111111110111010 3
b111111111111111111111111110111010 2
b1000110 <
b1000110 S
0C
0W
b1001000 Q
b11111110111101000010011000100011 -
b11111110111101000010011000100011 g
b1000000 K
b101 X
1Z
b1100 \
0Y
bx a
b1000100 +
b1000100 G
b0 ?
b1111 E
b110 U
b0 T
b111100 R
0B
1>
1J
b1000110 :
b1000110 0
b1000110 F
1!
#750
0!
#760
b11111111111111111111111111101100 I
b110010 4
b110010 S
b11111110110001000010011110000011 6
b111111011111 =
b111111011111 5
b111110101101 3
b111110101101 2
b110010 <
b1001100 Q
11
b11111110110001000010011110000011 -
b11111110110001000010011110000011 g
1P
1@
b10 ?
b1100 E
b1111 U
b1000 T
b1000000 R
0>
0J
b111111001011 :
b111111001011 0
b11111111111111111111111111101100 F
b1001000 +
b1001000 G
b0 X
1[
0Z
b1111 \
1Y
b1000110 a
b1000100 K
1b
1!
#770
0!
#780
b0 I
0C
b0 4
b1111000010100010011 6
b110010 `
0;
bx S
b1010000 Q
b111111110011 3
b100000000000000000000111111110011 2
b11111111111111111111111111101100 <
b1111000010100010011 -
b1111000010100010011 g
1c
0b
b1001000 K
b10 X
b11 _
0[
b1100 \
0Y
b110010 a
b1001100 +
b1001100 G
1$
1O
0P
b1111 E
b1100 U
b1000100 R
1J
1!
#790
0!
#800
b11100 I
b110010 =
b110010 5
b1110000010010010000000011 6
b110010 3
b110010 2
b0 <
b110010 S
0C
b1010100 Q
01
b1110000010010010000000011 -
b1110000010010010000000011 g
0$
0O
0@
b0 ?
b1010 E
b0 U
b1111 T
b1001000 R
1>
b110010 :
b110010 0
b0 F
b1010000 +
b1010000 G
1]
b1111 \
1Y
bx a
b1001100 K
0c
1!
#810
0!
#820
b111110111111 =
b111110111111 5
b100000 I
b10000000010000000100010011 6
b0 `
b111110100011 3
b111110100011 2
b11100 <
bx S
0C
b1011000 Q
b10000000010000000100010011 -
b10000000010000000100010011 g
b1010000 K
b0 X
b10 _
0]
b1010 \
b110010 a
b1010100 +
b1010100 G
1$
1O
b10 ?
b1000 E
b11100 U
b10 T
b1001100 R
0>
b111111011011 :
b111111011011 0
b11100 F
1!
#830
0!
#840
b0 I
b1000000001100111 6
b111110011111 3
b111110011111 2
b100000 <
b111111011111 S
0C
b1011100 Q
b0 "
b0 #
b1000000001100111 -
b1000000001100111 g
0$
0O
b0 ?
b10 E
b0 U
b1010000 R
1>
b111111011111 :
b111111011111 0
b100000 F
b1011000 +
b1011000 G
b10 X
b11 _
1]
b1000 \
bx a
b1010100 K
1!
#850
0!
#860
1H
b0 =
b0 5
b0 6
b0 3
b0 2
b0 <
b1011000 S
1C
b0 Q
b0 -
b0 g
b1011000 K
b0 X
0]
b10 \
b111111011111 a
b1011100 +
b1011100 G
b0 E
b1 T
b1010100 R
1M
0>
b0 :
b0 0
b0 F
1!
#870
0!
#880
bx S
0C
b100 Q
1;
18
b0 T
b1011000 R
0M
0J
b0 +
b0 G
b0 _
1Z
b0 \
b1011000 a
b1011100 K
1!
#890
0!
#900
b11111111111111111111111111100000 I
0H
b11111110000000010000000100010011 6
11
b1000 Q
b11111110000000010000000100010011 -
b11111110000000010000000100010011 g
1b
b0 K
1[
0Z
0Y
bx a
b100 +
b100 G
b1011100 R
1!
