simulation/pipeline.vcd
$date
	Wed Apr  2 19:24:41 2025
$end
$version
	Icarus Verilog
$end
$timescale
	1s
$end
$scope module testbench $end
$scope module pipe $end
$var wire 1 ! clk $end
$var wire 32 " dmem_read_data [31:0] $end
$var wire 32 # dmem_read_data_temp [31:0] $end
$var wire 1 $ dmem_read_ready $end
$var wire 1 % dmem_read_valid $end
$var wire 1 & dmem_read_valid_checker $end
$var wire 4 ' dmem_write_byte [3:0] $end
$var wire 32 ( dmem_write_data [31:0] $end
$var wire 1 ) dmem_write_ready $end
$var wire 1 * dmem_write_valid $end
$var wire 32 + inst_mem_address [31:0] $end
$var wire 1 , inst_mem_is_valid $end
$var wire 32 - inst_mem_read_data [31:0] $end
$var wire 32 . read_data_future [31:0] $end
$var wire 1 / reset $end
$var wire 1 0 stall $end
$var wire 32 1 write_address [31:0] $end
$var wire 1 2 wb_stall $end
$var wire 33 3 result_subu [32:0] $end
$var wire 33 4 result_subs [32:0] $end
$var wire 32 5 reg_rdata2 [31:0] $end
$var wire 32 6 reg_rdata1 [31:0] $end
$var wire 1 7 ok_read $end
$var wire 32 8 instruction_future [31:0] $end
$var wire 1 9 inst_mem_is_ready $end
$var wire 1 : exception $end
$var wire 32 ; dmem_write_address [31:0] $end
$var wire 32 < dmem_read_address [31:0] $end
$var wire 1 = branch_stall $end
$var wire 32 > alu_operand2 [31:0] $end
$var wire 32 ? alu_operand1 [31:0] $end
$var reg 1 @ alu $end
$var reg 3 A alu_operation [2:0] $end
$var reg 1 B arithsubtype $end
$var reg 1 C branch $end
$var reg 1 D branch_custom $end
$var reg 1 E branch_taken $end
$var reg 1 F custom $end
$var reg 5 G dest_reg_sel [4:0] $end
$var reg 32 H execute_immediate [31:0] $end
$var reg 32 I fetch_pc [31:0] $end
$var reg 1 J illegal_inst $end
$var reg 32 K immediate [31:0] $end
$var reg 1 L immediate_sel $end
$var reg 32 M inst_fetch_pc [31:0] $end
$var reg 32 N instruction [31:0] $end
$var reg 1 O jal $end
$var reg 1 P jalr $end
$var reg 1 Q lui $end
$var reg 1 R mem_to_reg $end
$var reg 1 S mem_write $end
$var reg 32 T next_pc [31:0] $end
$var reg 32 U pc [31:0] $end
$var reg 32 V result [31:0] $end
$var reg 5 W src1_select [4:0] $end
$var reg 5 X src2_select [4:0] $end
$var reg 1 Y stall_read $end
$var reg 1 Z teste $end
$var reg 3 [ wb_alu_operation [2:0] $end
$var reg 1 \ wb_alu_to_reg $end
$var reg 1 ] wb_branch $end
$var reg 1 ^ wb_branch_nxt $end
$var reg 5 _ wb_dest_reg_sel [4:0] $end
$var reg 1 ` wb_mem_to_reg $end
$var reg 1 a wb_mem_write $end
$var reg 2 b wb_read_address [1:0] $end
$var reg 32 c wb_read_data [31:0] $end
$var reg 32 d wb_result [31:0] $end
$var reg 1 e wb_stall_first $end
$var reg 1 f wb_stall_second $end
$var reg 32 g wb_write_address [31:0] $end
$var reg 4 h wb_write_byte [3:0] $end
$var reg 32 i wb_write_data [31:0] $end
$scope module IF_ID $end
$var wire 1 ! clk $end
$var wire 32 j inst_data_future [31:0] $end
$var wire 1 , inst_mem_is_valid $end
$var wire 32 k inst_mem_read_data [31:0] $end
$var wire 1 / reset $end
$var wire 1 0 stall $end
$var reg 1 : exception $end
$var reg 1 7 ok_read $end
$var integer 32 l aux [31:0] $end
$var integer 32 m counter [31:0] $end
$var integer 32 n counter2 [31:0] $end
$var integer 32 o flag [31:0] $end
$var integer 32 p flag_aux [31:0] $end
$var integer 32 q i [31:0] $end
$scope function set_operand $end
$var reg 32 r data [31:0] $end
$upscope $end
$upscope $end
$scope module execute $end
$var wire 1 ! clk $end
$var wire 1 / reset $end
$scope function set_operand $end
$var reg 32 s data [31:0] $end
$var reg 8 t value [7:0] $end
$upscope $end
$upscope $end
$scope module wb $end
$var wire 1 ! clk $end
$var wire 1 / reset $end
$upscope $end
$upscope $end
$upscope $end
$enddefinitions $end
#0
$dumpvars
bx t
bx s
bx r
b100000 q
b0 p
b0 o
b1 n
b10 m
b0 l
bx k
b100000010010111000100011 j
b0 i
b0 h
b0 g
0f
0e
b0 d
bx c
b0 b
0a
0`
b0 _
0^
0]
0\
b0 [
0Z
1Y
b0 X
b0 W
bx V
b0 U
b100 T
0S
0R
xQ
0P
0O
bx N
b0 M
0L
bx K
xJ
b0 I
b0 H
b0 G
0F
0E
0D
0C
0B
b0 A
0@
b0 ?
b0 >
0=
b0 <
b0 ;
0:
09
b100000010010111000100011 8
17
b0 6
b0 5
b0 4
b0 3
02
b0 1
10
0/
b100000010010111000100011 .
bx -
1,
b0 +
1*
0)
b0 (
b0 '
1&
1%
0$
bx #
bx "
1!
$end
#10
0!
#20
b11 m
0J
b11111111111111111111111111100000 K
b11111110000000010000000100010011 N
b10000000010000010000010011 8
b10000000010000010000010011 .
b10000000010000010000010011 j
b11111110000000010000000100010011 -
b11111110000000010000000100010011 k
b100000 q
1!
#30
0!
#40
b100 m
b101000000000011110010011 8
b101000000000011110010011 .
b101000000000011110010011 j
b100000 q
1!
#50
0!
#60
b101 m
b11111110111101000010010000100011 8
b11111110111101000010010000100011 .
b11111110111101000010010000100011 j
b100000 q
1!
#70
0!
#80
b110 m
b1010000000000011110010011 8
b1010000000000011110010011 .
b1010000000000011110010011 j
b100000 q
1!
#90
0!
#100
b111 m
b11111110111101000010001000100011 8
b11111110111101000010001000100011 .
b11111110111101000010001000100011 j
b100000 q
1!
#110
0!
#120
b1000 m
b11111110010001000010011110000011 8
b11111110010001000010011110000011 .
b11111110010001000010011110000011 j
b100000 q
1!
#130
0!
#140
b1001 m
b101111001011110010011 8
b101111001011110010011 .
b101111001011110010011 j
b100000 q
1!
#150
0!
#160
b1010 m
b11111110100001000010011100000011 8
b11111110100001000010011100000011 .
b11111110100001000010011100000011 j
b100000 q
1!
#170
0!
#180
b1011 m
1/
b111101110000011110110011 8
b111101110000011110110011 .
b111101110000011110110011 j
b100000 q
1!
#190
0!
#200
b1100 m
b11111110111101000010011000100011 8
b11111110111101000010011000100011 .
b11111110111101000010011000100011 j
1!
#210
0!
#220
b1101 m
b11111110110001000010011100000011 8
b11111110110001000010011100000011 .
b11111110110001000010011100000011 j
1!
#230
0!
#240
b1110 m
b11001000000000011110010011 8
b11001000000000011110010011 .
b11001000000000011110010011 j
1!
#250
0!
#260
b1111 m
b111100000000000011110001111 8
b111100000000000011110001111 .
b111100000000000011110001111 j
1!
#270
0!
#280
b10000 m
b11111110111101000010011000100011 8
b11111110111101000010011000100011 .
b11111110111101000010011000100011 j
1!
#290
0!
#300
b10001 m
b11111110110001000010011110000011 8
b11111110110001000010011110000011 .
b11111110110001000010011110000011 j
1!
#310
0!
#320
b10010 m
b1111000010100010011 8
b1111000010100010011 .
b1111000010100010011 j
1!
#330
0!
#340
b10011 m
b1110000010010010000000011 8
b1110000010010010000000011 .
b1110000010010010000000011 j
1!
#350
0!
#360
b10100 m
b10000000010000000100010011 8
b10000000010000000100010011 .
b10000000010000000100010011 j
1!
#370
0!
#380
b10101 m
00
b1000000001100111 8
b1000000001100111 .
b1000000001100111 j
1!
#390
0!
#400
b10110 m
b0 8
b0 .
b0 j
19
0Y
1!
#410
0!
#420
b111111111111 ?
b111111111111 6
b1000000011111 4
b100000000000000000001000000011111 3
b11111111111111111111111111100000 >
b111111011111 V
0E
b1000 T
x\
bx d
b100 +
b100 I
b10 G
b10 W
0Q
1@
1L
b111111011111 <
b111111011111 1
b11111111111111111111111111100000 H
1!
#430
0!
#440
b10111 m
b111110111111 V
b111111111111 4
b100000000000000000000111111111111 3
b111110111111 1
b111110111111 <
b111111011111 ?
b111111011111 6
b11100 K
b100000010010111000100011 N
0E
b1100 T
b100000010010111000100011 -
b100000010010111000100011 k
b1000 +
b1000 I
b11 b
b10 _
1\
b111111011111 d
b100 M
1!
#450
0!
#460
b11000 m
b111110111111 ?
b111110111111 6
b100000 K
b10000000010000010000010011 N
b111110111111 4
b111110111111 3
b0 >
b0 V
0E
b10000 T
b10000000010000010000010011 -
b10000000010000010000010011 k
b1000 M
b111110111111 d
b1100 +
b1100 I
1S
b10 A
b11100 G
b1000 X
b100 U
0@
0L
b111111011011 <
b111111011011 1
b11100 H
1!
#470
0!
#480
b11001 m
b1010 K
b101000000000011110010011 N
b111110011111 4
b111110011111 3
b100000 >
b111111011111 V
0E
b10100 T
b101000000000011110010011 -
b101000000000011110010011 k
0S
b0 A
b1000 G
b0 X
b1000 U
1@
1L
b111111011111 <
b111111011111 1
b100000 H
b10000 +
b10000 I
b10 [
b11100 _
0\
1)
1a
b0 d
b1100 M
b1111 '
b1111 h
b111111011011 ;
b111111011011 g
1!
#490
0!
#500
b11010 m
b11111111111111111111111111101000 K
b1010 V
b11111110111101000010010000100011 N
b0 ?
b0 6
b111111111111111111111111111110110 4
b111111111111111111111111111110110 3
b1010 >
0E
b11000 T
b11111110111101000010010000100011 -
b11111110111101000010010000100011 k
b10000 M
b0 [
b1000 _
1\
0)
0a
b111111011111 d
b10100 +
b10100 I
b1111 G
b1010 X
b0 W
b1100 U
b1010 <
b1010 1
b1010 H
1!
#510
0!
#520
b11011 m
07
b1010 5
b11111111111111111111111111100100 K
b1010 V
b11111110111101000010001000100011 N
b111111011111 ?
b111111011111 6
b111111010101 4
b111111010101 3
b1010 >
0E
b11100 T
b1010000000000011110010011 -
b1010000000000011110010011 k
1S
1B
b10 A
b1000 G
b1111 X
b1000 W
b10000 U
0@
0L
b111111000111 <
b111111000111 1
b11111111111111111111111111101000 H
b11000 +
b11000 I
b10 b
b1111 _
b1010 d
b10100 M
1!
#530
0!
#540
b100000 K
0E
b100000 T
b10000000010000010000010011 N
b1010 (
b1010 i
b111111000111 ;
b111111000111 g
b11000 M
b10 [
b11 b
b1000 _
0\
1)
1a
b11100 +
b11100 I
b100 G
b10100 U
b111111000011 <
b111111000011 1
b11111111111111111111111111100100 H
b10 n
1!
#550
0!
#560
b111110111111 ?
b111110111111 6
b0 5
b111110011111 4
b111110011111 3
b100000 >
b111111011111 V
0E
b100100 T
0S
0B
b0 A
b1000 G
b0 X
b10 W
b11000 U
1@
1L
b111111011111 <
b111111011111 1
b100000 H
b100000 +
b100000 I
b100 _
b11100 M
b111111000011 ;
b111111000011 g
b11 n
1!
#570
0!
#580
b11111111111111111111111111101000 K
0E
b101000 T
b11111110111101000010010000100011 N
b100000 M
b0 [
b1000 _
1\
0)
0a
b111111011111 d
b100100 +
b100100 I
b11100 U
b100 n
1!
#590
0!
#600
b111111011111 ?
b111111011111 6
b1010 5
b111111010101 4
b111111010101 3
b1010 >
b1010 V
0E
b101100 T
1S
1B
b10 A
b1111 X
b1000 W
b100000 U
0@
0L
b111111000111 <
b111111000111 1
b11111111111111111111111111101000 H
b101000 +
b101000 I
b100100 M
b101 n
1!
#610
0!
#620
b111111010101 4
b111111010101 3
b111111000111 1
b111111000111 <
b111111011111 ?
b111111011111 6
b11111111111111111111111111100100 K
0E
b110000 T
b11111110111101000010001000100011 N
b111111000111 ;
b111111000111 g
b101000 M
b10 [
0\
1)
1a
b1010 d
b101100 +
b101100 I
b100100 U
b110 n
1!
#630
0!
#640
0E
b110100 T
b100 G
b101000 U
b111111000011 <
b111111000011 1
b11111111111111111111111111100100 H
b110000 +
b110000 I
b101100 M
b111 n
1!
#650
0!
#660
b1 K
0E
b111000 T
b101111001011110010011 N
b111111000011 ;
b111111000011 g
b110000 M
b100 _
b110100 +
b110100 I
b101100 U
b1000 n
1!
#670
0!
#680
b0 5
b1010 ?
b1010 6
b1001 4
b1001 3
b1 >
b10100 V
0E
b111100 T
0S
0B
b1 A
b1111 G
b1 X
b1111 W
b110000 U
1@
1L
b1011 <
b1011 1
b1 H
b111000 +
b111000 I
b110100 M
b1001 n
1!
#690
0!
#700
b101000 V
b10011 4
b10011 3
b10101 1
b10101 <
b10100 ?
b10100 6
b0 K
0E
b1000000 T
b111101110000011110110011 N
b111000 M
b1 [
b1111 _
1\
0)
0a
b10100 d
b111100 +
b111100 I
b110100 U
b1010 n
1!
#710
0!
#720
b0 ?
b0 6
b101000 5
b111111111111111111111111111011000 4
b111111111111111111111111111011000 3
b101000 >
b101000 V
0E
b1000100 T
b0 A
b1111 X
b1110 W
b111000 U
0L
b0 <
b0 1
b0 H
b1000000 +
b1000000 I
b1 b
b101000 d
b111100 M
b1011 n
1!
#730
0!
#740
b11111111111111111111111111101100 K
0E
b1001000 T
b11111110110001000010011100000011 N
b1000000 M
b0 [
b0 b
b1000100 +
b1000100 I
b111100 U
b1100 n
1!
#750
0!
#760
b0 5
b111111011111 ?
b111111011111 6
b111111110011 4
b100000000000000000000111111110011 3
b11111111111111111111111111101100 >
bx V
0E
b1001100 T
1$
1R
1B
b10 A
b1110 G
b1100 X
b1000 W
b1000000 U
0@
1L
b111111001011 <
b111111001011 1
b11111111111111111111111111101100 H
b1001000 +
b1001000 I
b1000100 M
b1101 n
1!
#770
0!
#780
b1111000 K
0E
b1010000 T
b111100000000000011110001111 N
b1001000 M
b10 [
b11 b
1`
b1110 _
bx d
b1001100 +
b1001100 I
b1000100 U
b1 o
b11001 q
b1110 n
1!
#790
0!
#800
b1100 K
b0 ?
b0 6
b111111111111111111111111110001000 4
b111111111111111111111111110001000 3
b1111000 >
b1111000 V
1Z
0E
b11000000 T
b111101110001011001100011 N
0$
0R
0B
b0 A
b1111 G
b11000 X
b0 W
b1001000 U
1F
1@
b1111000 <
b1111000 1
b1111000 H
b1010000 +
b1010000 I
b1001100 M
b1111 n
1!
#810
0!
#820
b1111000 5
b1111000 K
bx ?
bx 6
bx 4
bx 3
b1111000 >
bx V
0Z
1E
b0x10xxx00 T
b111100000000000011110010011 N
b1010000 M
b0 [
b0 b
0`
b1111 _
b1111000 d
b11000000 +
b11000000 I
b1 A
b1100 G
b1111 X
b1110 W
b1001100 U
1C
0F
0@
0L
bx <
bx 1
b1100 H
b10000 n
1!
#830
0!
#840
b0 5
b111111111111111111111111110001000 4
b1111000 V
b111111111111111111111111110001000 3
b1111000 1
b1111000 <
b0 ?
b0 6
0E
bx T
1=
b0 A
b1111 G
b11000 X
b0 W
b1010000 U
0C
1@
1L
b1111000 H
b0x10xxx00 +
b0x10xxx00 I
b1 [
bx b
1]
b1100 _
0\
bx d
b11000000 M
b10001 n
1!
#850
0!
#860
b11100 K
12
b1110000010010010000000011 N
1e
b0x10xxx00 M
b0 [
b0 b
1^
0]
b1111 _
1\
b1111000 d
bx +
bx I
b11000000 U
b10010 n
1!
#870
0!
#880
b111110111111 ?
b111110111111 6
b111110100011 4
b111110100011 3
b11100 >
bx V
0E
0=
1$
1R
b10 A
b1000 G
b11100 X
b10 W
b0x10xxx00 U
0@
b111111011011 <
b111111011011 1
b11100 H
0^
bx M
1f
0e
b10011 n
1!
#890
0!
#900
b0 K
02
0E
b1000000001100111 N
0f
b10 [
b11 b
1`
b1000 _
bx d
bx U
b10100 n
1!
#910
0!
#920
b0 ?
b0 6
b0 4
b0 3
b0 >
b0 T
1E
0$
0R
b0 A
b0 G
b0 X
b1 W
1P
b0 <
b0 1
b0 H
b10101 n
1!
#930
0!
#940
0E
1J
1=
b0 T
bx N
b0 [
b0 b
0`
1]
b0 _
b0 +
b0 I
b10110 n
1!
#950
0!
#960
bx >
bx 5
bx 4
bx 3
bx 1
bx <
bx ?
bx 6
b1000 T
12
1:
x$
xR
xS
xB
bx A
bx G
bx X
bx W
xD
xC
xP
xO
xQ
xF
x@
xL
b100 +
b100 I
1^
0]
b0 M
1e
b10111 n
1!
#970
0!
#980
0E
0=
b1100 T
1f
0e
b100 M
bx [
bx b
x`
0^
bx _
x\
b1000 +
b1000 I
b0 U
b11000 n
1!
