simulation/pipeline.vcd
$date
	Wed Feb  5 06:04:48 2025
$end
$version
	Icarus Verilog
$end
$timescale
	1s
$end
$scope module testbench $end
$scope module pipe $end
$var wire 1 ! clk $end
$var wire 32 " dmem_read_data [31:0] $end
$var wire 32 # dmem_read_data_temp [31:0] $end
$var wire 1 $ dmem_read_ready $end
$var wire 1 % dmem_read_valid $end
$var wire 1 & dmem_read_valid_checker $end
$var wire 4 ' dmem_write_byte [3:0] $end
$var wire 32 ( dmem_write_data [31:0] $end
$var wire 1 ) dmem_write_ready $end
$var wire 1 * dmem_write_valid $end
$var wire 32 + inst_mem_address [31:0] $end
$var wire 1 , inst_mem_is_valid $end
$var wire 32 - inst_mem_read_data [31:0] $end
$var wire 1 . reset $end
$var wire 1 / stall $end
$var wire 32 0 write_address [31:0] $end
$var wire 1 1 wb_stall $end
$var wire 33 2 result_subu [32:0] $end
$var wire 33 3 result_subs [32:0] $end
$var wire 32 4 reg_rdata2 [31:0] $end
$var wire 32 5 reg_rdata1 [31:0] $end
$var wire 32 6 instruction [31:0] $end
$var wire 1 7 inst_mem_is_ready $end
$var wire 1 8 exception $end
$var wire 32 9 dmem_write_address [31:0] $end
$var wire 32 : dmem_read_address [31:0] $end
$var wire 1 ; branch_stall $end
$var wire 32 < alu_operand2 [31:0] $end
$var wire 32 = alu_operand1 [31:0] $end
$var reg 1 > alu $end
$var reg 3 ? alu_operation [2:0] $end
$var reg 1 @ arithsubtype $end
$var reg 1 A branch $end
$var reg 1 B branch_taken $end
$var reg 5 C dest_reg_sel [4:0] $end
$var reg 32 D execute_immediate [31:0] $end
$var reg 32 E fetch_pc [31:0] $end
$var reg 1 F illegal_inst $end
$var reg 32 G immediate [31:0] $end
$var reg 1 H immediate_sel $end
$var reg 32 I inst_fetch_pc [31:0] $end
$var reg 1 J jal $end
$var reg 1 K jalr $end
$var reg 1 L lui $end
$var reg 1 M mem_to_reg $end
$var reg 1 N mem_write $end
$var reg 32 O next_pc [31:0] $end
$var reg 32 P pc [31:0] $end
$var reg 32 Q result [31:0] $end
$var reg 5 R src1_select [4:0] $end
$var reg 5 S src2_select [4:0] $end
$var reg 1 T stall_read $end
$var reg 3 U wb_alu_operation [2:0] $end
$var reg 1 V wb_alu_to_reg $end
$var reg 1 W wb_branch $end
$var reg 1 X wb_branch_nxt $end
$var reg 5 Y wb_dest_reg_sel [4:0] $end
$var reg 1 Z wb_mem_to_reg $end
$var reg 1 [ wb_mem_write $end
$var reg 2 \ wb_read_address [1:0] $end
$var reg 32 ] wb_read_data [31:0] $end
$var reg 32 ^ wb_result [31:0] $end
$var reg 1 _ wb_stall_first $end
$var reg 1 ` wb_stall_second $end
$var reg 32 a wb_write_address [31:0] $end
$var reg 4 b wb_write_byte [3:0] $end
$var reg 32 c wb_write_data [31:0] $end
$scope module IF_ID $end
$var wire 1 ! clk $end
$var wire 1 , inst_mem_is_valid $end
$var wire 32 d inst_mem_read_data [31:0] $end
$var wire 1 . reset $end
$var wire 1 / stall $end
$var reg 32 e buffer1 [31:0] $end
$var reg 8 f counter [7:0] $end
$var reg 1 8 exception $end
$var integer 32 g i [31:0] $end
$scope function getInstruction $end
$var reg 8 h counter [7:0] $end
$var reg 32 i inst_data [31:0] $end
$var reg 1 j stall $end
$upscope $end
$upscope $end
$scope module execute $end
$var wire 1 ! clk $end
$var wire 1 . reset $end
$upscope $end
$scope module wb $end
$var wire 1 ! clk $end
$var wire 1 . reset $end
$upscope $end
$upscope $end
$upscope $end
$enddefinitions $end
#0
$dumpvars
1j
bx i
b0 h
b100000 g
b0 f
b0 e
bx d
b0 c
b0 b
b0 a
0`
0_
b0 ^
bx ]
b0 \
0[
0Z
b0 Y
0X
0W
0V
b0 U
1T
b0 S
b0 R
bx Q
b0 P
b100 O
0N
0M
xL
0K
0J
b0 I
0H
b0 G
0F
b0 E
b0 D
b0 C
0B
0A
0@
b0 ?
0>
b0 =
b0 <
0;
b0 :
b0 9
08
07
b10011 6
b0 5
b0 4
b0 3
b0 2
01
b0 0
1/
0.
bx -
1,
b0 +
1*
0)
b0 (
b0 '
1&
1%
0$
bx #
bx "
1!
$end
#10
0!
#20
b11111101000000010000000100010011 i
b11111101000000010000000100010011 -
b11111101000000010000000100010011 d
b100000 g
1!
#30
0!
#40
b100000 g
1!
#50
0!
#60
b100000 g
1!
#70
0!
#80
b100000 g
1!
#90
0!
#100
b100000 g
1!
#110
0!
#120
b100000 g
1!
#130
0!
#140
b100000 g
1!
#150
0!
#160
b100000 g
1!
#170
0!
#180
1.
b100000 g
1!
#190
0!
#200
1!
#210
0!
#220
1!
#230
0!
#240
1!
#250
0!
#260
1!
#270
0!
#280
1!
#290
0!
#300
1!
#310
0!
#320
1!
#330
0!
#340
1!
#350
0!
#360
1!
#370
0!
#380
0/
1!
#390
0!
#400
b11111111111111111111111111010000 G
b11111101000000010000000100010011 6
0j
17
0T
1!
#410
0!
#420
b111111111111 =
b111111111111 5
b1000000101111 3
b100000000000000000001000000101111 2
b11111111111111111111111111010000 <
b111111001111 Q
0B
b1000 O
xV
bx ^
b100 +
b100 E
b10 C
b10000 S
b10 R
0L
1>
1H
b111111001111 :
b111111001111 0
b11111111111111111111111111010000 D
1!
#430
0!
#440
b111110011111 Q
b111111111111 3
b100000000000000000000111111111111 2
b111110011111 0
b111110011111 :
b111111001111 =
b111111001111 5
b101100 G
b10100000010010011000100011 6
b10100000010010011000100011 i
0B
b1100 O
b10100000010010011000100011 -
b10100000010010011000100011 d
b1000 +
b1000 E
b11 \
b10 Y
1V
b111111001111 ^
b100 I
1!
#450
0!
#460
b111110011111 =
b111110011111 5
b110000 G
b11000000010000010000010011 6
b10001000100010001000100010001 i
b111110011111 3
b111110011111 2
b0 <
b0 Q
0B
b10000 O
b10001000100010001000100010001 -
b10001000100010001000100010001 d
b1000 I
b111110011111 ^
b1100 +
b1100 E
1N
b10 ?
b1100 C
b1000 S
b100 P
0>
0H
b111111001011 :
b111111001011 0
b101100 D
1!
#470
0!
#480
b1000000000000 G
b1011110110111 6
b1 h
b11111110111101000001000100100011 i
b111101101111 3
b111101101111 2
b110000 <
b111111001111 Q
0B
b10100 O
b11111110111101000001000100100011 -
b11111110111101000001000100100011 d
b11000000010000010000010011 e
b1 f
0N
b0 ?
b1000 C
b10000 S
b1000 P
1>
1H
b111111001111 :
b111111001111 0
b110000 D
b10000 +
b10000 E
b10 U
b1100 Y
0V
1)
1[
b0 ^
b1100 I
b1111 '
b1111 b
b111111001011 9
b111111001011 a
1!
#490
0!
#500
b100001 G
b0 =
b0 5
b0 3
b0 2
b0 <
b1000000000000 Q
0B
b11000 O
b10000101111000011110010011 6
b10 h
b11000100000000011110010011 i
b11000100000000011110010011 -
b11000100000000011110010011 d
b10000 I
b0 U
b1000 Y
1V
0)
0[
b111111001111 ^
b10100 +
b10100 E
b1 ?
b1111 C
b0 S
b0 R
b1100 P
1L
0>
0H
b1000000000000 :
b1000000000000 0
b1000000000000 D
b10 f
1!
#510
0!
#520
b1000000000000 =
b1000000000000 5
b11111111111111111111111111011100 G
b11111100111101000000111000100011 6
b11111100111101000000111000100011 i
b111111011111 3
b111111011111 2
b100001 <
b1000000100001 Q
0B
b11100 O
b11111100111101000000111000100011 -
b11111100111101000000111000100011 d
b0 ?
b1 S
b1111 R
b10000 P
0L
1>
1H
b1000000100001 :
b1000000100001 0
b100001 D
b11000 +
b11000 E
b1 U
b0 \
b1111 Y
b1000000000000 ^
b10100 I
1!
#530
0!
#540
b111111001111 =
b111111001111 5
b110010 G
b1000000100001 4
b11001000000000011110010011 6
b11001000000000011110010011 i
b111111111111111111111111110101110 3
b111111111111111111111111110101110 2
b1000000100001 <
b1000000100001 Q
0B
b100000 O
b11001000000000011110010011 -
b11001000000000011110010011 d
b11000 I
b0 U
b1 \
b1000000100001 ^
b11100 +
b11100 E
1N
1@
b11100 C
b1111 S
b1000 R
b10100 P
0>
0H
b111110101011 :
b111110101011 0
b11111111111111111111111111011100 D
1!
#550
0!
#560
b0 4
b11111111111111111111111111011101 G
b11111100111101000000111010100011 6
b11111100111101000000111010100011 i
b0 =
b0 5
b111111111111111111111111111001110 3
b111111111111111111111111111001110 2
b110010 <
b110010 Q
0B
b100100 O
b11111100111101000000111010100011 -
b11111100111101000000111010100011 d
0N
0@
b1111 C
b10010 S
b0 R
b11000 P
1>
1H
b110010 :
b110010 0
b110010 D
b100000 +
b100000 E
b11 \
b11100 Y
0V
1)
1[
b11100 I
b1000 '
b1000 b
b100001001000010010000100100001 (
b100001001000010010000100100001 c
b111110101011 9
b111110101011 a
1!
#570
0!
#580
b110011 G
b110010 4
b110010 Q
b11001100000000011110010011 6
b11001100000000011110010011 i
b111111001111 =
b111111001111 5
b111110011101 3
b111110011101 2
b110010 <
0B
b101000 O
b11001100000000011110010011 -
b11001100000000011110010011 d
b100000 I
b10 \
b1111 Y
1V
0)
0[
b110010 ^
b100100 +
b100100 E
1N
1@
b11101 C
b1111 S
b1000 R
b11100 P
0>
0H
b111110101100 :
b111110101100 0
b11111111111111111111111111011101 D
1!
#590
0!
#600
b0 4
b11111111111111111111111111011110 G
b11111100111101000000111100100011 6
b11111100111101000000111100100011 i
b0 =
b0 5
b111111111111111111111111111001101 3
b111111111111111111111111111001101 2
b110011 <
b110011 Q
0B
b101100 O
b11111100111101000000111100100011 -
b11111100111101000000111100100011 d
0N
0@
b1111 C
b10011 S
b0 R
b100000 P
1>
1H
b110011 :
b110011 0
b110011 D
b101000 +
b101000 E
b0 \
b11101 Y
0V
1)
1[
b100100 I
b1 '
b1 b
b110010001100100011001000110010 (
b110010001100100011001000110010 c
b111110101100 9
b111110101100 a
1!
#610
0!
#620
b11111111111111111111111111111111 G
b110011 4
b110011 Q
b11111111111100000000011110010011 6
b11111111111100000000011110010011 i
b111111001111 =
b111111001111 5
b111110011100 3
b111110011100 2
b110011 <
0B
b110000 O
b11111111111100000000011110010011 -
b11111111111100000000011110010011 d
b101000 I
b11 \
b1111 Y
1V
0)
0[
b110011 ^
b101100 +
b101100 E
1N
1@
b11110 C
b1111 S
b1000 R
b100100 P
0>
0H
b111110101101 :
b111110101101 0
b11111111111111111111111111011110 D
1!
#630
0!
#640
b0 4
b11111111111111111111111111101110 G
b11111110111101000001011100100011 6
b11111110111101000001011100100011 i
b0 =
b0 5
b1 3
b100000000000000000000000000000001 2
b11111111111111111111111111111111 <
b11111111111111111111111111111111 Q
0B
b110100 O
b11111110111101000001011100100011 -
b11111110111101000001011100100011 d
0N
0@
b1111 C
b11111 S
b0 R
b101000 P
1>
1H
b11111111111111111111111111111111 :
b11111111111111111111111111111111 0
b11111111111111111111111111111111 D
b110000 +
b110000 E
b1 \
b11110 Y
0V
1)
1[
b101100 I
b10 '
b10 b
b110011001100110011001100110011 (
b110011001100110011001100110011 c
b111110101101 9
b111110101101 a
1!
#650
0!
#660
b11111111111111111111111111101100 G
b11111111111111111111111111111111 4
b11111111111111111111111111111111 Q
b11111110000001000001011000100011 6
b11111110000001000001011000100011 i
b111111001111 =
b111111001111 5
b111111010000 3
b100000000000000000000111111010000 2
b11111111111111111111111111111111 <
0B
b111000 O
b11111110000001000001011000100011 -
b11111110000001000001011000100011 d
b110000 I
b11 \
b1111 Y
1V
0)
0[
b11111111111111111111111111111111 ^
b110100 +
b110100 E
1N
1@
b1 ?
b1110 C
b1111 S
b1000 R
b101100 P
0>
0H
b111110111101 :
b111110111101 0
b11111111111111111111111111101110 D
1!
#670
0!
#680
b0 Q
b11111111111111111111111111101010 G
b111111001111 3
b111111001111 2
b0 <
b11111110000001000001010100100011 6
b11111110000001000001010100100011 i
b0 4
0B
b111100 O
b11111110000001000001010100100011 -
b11111110000001000001010100100011 d
b1100 C
b0 S
b110000 P
b111110111011 :
b111110111011 0
b11111111111111111111111111101100 D
b111000 +
b111000 E
b1 U
b1 \
b1110 Y
0V
1)
1[
b110100 I
b11 '
b11 b
b11111111111111111111111111111111 (
b11111111111111111111111111111111 c
b111110111101 9
b111110111101 a
1!
#690
0!
#700
b11111111111111111111111111100100 G
b11111110000001000001001000100011 6
b11111110000001000001001000100011 i
0B
b1000000 O
b11111110000001000001001000100011 -
b11111110000001000001001000100011 d
b1100 '
b1100 b
b0 (
b0 c
b111110111011 9
b111110111011 a
b111000 I
b11 \
b1100 Y
b0 ^
b111100 +
b111100 E
b1010 C
b110100 P
b111110111001 :
b111110111001 0
b11111111111111111111111111101010 D
1!
#710
0!
#720
0B
b1000100 O
b100 C
b111000 P
b111110110011 :
b111110110011 0
b11111111111111111111111111100100 D
b1000000 +
b1000000 E
b1 \
b1010 Y
b111100 I
b11 '
b11 b
b111110111001 9
b111110111001 a
1!
#730
0!
#740
b11010000 G
b1101000000000000000001101111 6
b1101000000000000000001101111 i
0B
b1001000 O
b1101000000000000000001101111 -
b1101000000000000000001101111 d
b1100 '
b1100 b
b111110110011 9
b111110110011 a
b1000000 I
b11 \
b100 Y
b1000100 +
b1000100 E
b111100 P
1!
#750
0!
#760
b11111111111111111111111111100100 G
b11111110010001000001011110000011 6
b11111110010001000001011110000011 i
b0 3
b0 2
b0 =
b0 5
b1000100 Q
1B
b100010000 O
b11111110010001000001011110000011 -
b11111110010001000001011110000011 d
0N
0@
b0 ?
b0 C
b10000 S
b0 R
b1000000 P
1J
b11010000 :
b11010000 0
b11010000 D
b1001000 +
b1001000 E
b1000100 I
1!
#770
0!
#780
b11111111111111111111111111110000 G
b11111111000001000000011100010011 6
b11111111000001000000011100010011 i
1;
b111111001111 =
b111111001111 5
b111111101011 3
b100000000000000000000111111101011 2
b11111111111111111111111111100100 <
bx Q
0B
b100010100 O
b11111111000001000000011100010011 -
b11111111000001000000011100010011 d
b1001000 I
b0 U
b0 \
1W
b0 Y
1V
0)
0[
b1000100 ^
b100010000 +
b100010000 E
1$
1M
1@
b1 ?
b1111 C
b100 S
b1000 R
b1000100 P
0J
1H
b111110110011 :
b111110110011 0
b11111111111111111111111111100100 D
1!
#790
0!
#800
b11111111111111111111111111100100 G
b11111110010001000001011100000011 6
b11111110010001000001011100000011 i
b111111011111 3
b100000000000000000000111111011111 2
b11111111111111111111111111110000 <
b111110111111 Q
b100011000 O
b0 ]
11
b0 "
b0 #
b11111110010001000001011100000011 -
b11111110010001000001011100000011 d
0$
0M
0@
b0 ?
b1110 C
b10000 S
b1001000 P
1>
b111110111111 :
b111110111111 0
b11111111111111111111111111110000 D
b100010100 +
b100010100 E
b1 U
b11 \
1Z
1X
0W
b1111 Y
bx ^
b100010000 I
1_
1!
#810
0!
#820
b11 G
0B
b1100000000011110010011 6
b1100000000011110010011 i
0;
b111111101011 3
b100000000000000000000111111101011 2
b11111111111111111111111111100100 <
bx Q
b100011100 O
b1100000000011110010011 -
b1100000000011110010011 d
1`
0_
b100010100 I
b0 U
0Z
0X
b1110 Y
b111110111111 ^
b100011000 +
b100011000 E
1$
1M
1@
b1 ?
b100 S
b100010000 P
0>
b111110110011 :
b111110110011 0
b11111111111111111111111111100100 D
1!
#830
0!
#840
b11111111111111111111111100101100 G
b11110010111001111101011011100011 6
b11110010111001111101011011100011 i
b0 =
b0 5
b111111111111111111111111111111101 3
b111111111111111111111111111111101 2
b11 <
b11 Q
0B
b100100000 O
01
b11110010111001111101011011100011 -
b11110010111001111101011011100011 d
0$
0M
0@
b0 ?
b1111 C
b11 S
b0 R
b100010100 P
1>
b11 :
b11 0
b11 D
b100011100 +
b100011100 E
b1 U
1Z
bx ^
b100011000 I
0`
1!
#850
0!
#860
b11111111111111111111111111101110 G
b11111110111001000001011110000011 6
b11111110111001000001011110000011 i
b11 =
b11 5
b11 3
b11 2
b0 <
bx Q
1B
b1000100 O
b11111110111001000001011110000011 -
b11111110111001000001011110000011 d
b100011100 I
b0 U
0Z
b1111 Y
b11 ^
b100100000 +
b100100000 E
1@
b101 ?
b1101 C
b1110 S
b1111 R
b100011000 P
1A
0>
0H
b11111111111111111111111100101111 :
b11111111111111111111111100101111 0
b11111111111111111111111100101100 D
1!
#870
0!
#880
b111111001111 =
b111111001111 5
b0 G
b1111000010100010011 6
b1111000010100010011 i
b111111100001 3
b100000000000000000000111111100001 2
b11111111111111111111111111101110 <
0B
b1001000 O
1;
b1111000010100010011 -
b1111000010100010011 d
1$
1M
b1 ?
b1111 C
b1000 R
b100011100 P
0A
1H
b111110111101 :
b111110111101 0
b11111111111111111111111111101110 D
b1000100 +
b1000100 E
b101 U
1W
b1101 Y
0V
bx ^
b100100000 I
1!
#890
0!
#900
b11111111111111111111111111100100 G
b11 =
b11 5
b11111110010001000001011110000011 6
b11111110010001000001011110000011 i
11
b11111111111111111111111111111111 ]
b11 3
b11 2
b0 <
b11 Q
b1001100 O
b11111110010001000001011110000011 -
b11111110010001000001011110000011 d
b1111111111111111 "
b1111111111111111 #
1_
b1000100 I
b1 U
b1 \
1Z
1X
0W
b1111 Y
1V
b1001000 +
b1001000 E
0$
0M
0@
b0 ?
b1010 C
b0 S
b1111 R
b100100000 P
1>
b11 :
b11 0
b0 D
1!
#910
0!
#920
b11111111111111111111111111110000 G
b111111001111 =
b111111001111 5
b11111111000001000000011100010011 6
b11111111000001000000011100010011 i
b111111101011 3
b100000000000000000000111111101011 2
b11111111111111111111111111100100 <
bx Q
0B
b1010000 O
b0 ]
0;
b11111111000001000000011100010011 -
b11111111000001000000011100010011 d
1$
1M
1@
b1 ?
b1111 C
b100 S
b1000 R
b1000100 P
0>
b111110110011 :
b111110110011 0
b11111111111111111111111111100100 D
b1001100 +
b1001100 E
b0 U
b11 \
0Z
0X
b1010 Y
b11 ^
b1001000 I
1`
0_
1!
#930
0!
#940
b0 G
b111101110000011110110011 6
b111101110000011110110011 i
01
b111111011111 3
b100000000000000000000111111011111 2
b11111111111111111111111111110000 <
b111110111111 Q
0B
b1010100 O
b111101110000011110110011 -
b111101110000011110110011 d
b0 "
b0 #
0`
b1001100 I
b1 U
1Z
b1111 Y
bx ^
b1010000 +
b1010000 E
0$
0M
0@
b0 ?
b1110 C
b10000 S
b1001000 P
1>
b111110111111 :
b111110111111 0
b11111111111111111111111111110000 D
1!
#950
0!
#960
b11111111111111111111111111101100 G
b111110111111 =
b111110111111 5
b111110111111 Q
b11111110110001111100011110000011 6
b11111110110001111100011110000011 i
b111110111111 3
b111110111111 2
b0 <
0B
b1011000 O
b11111110110001111100011110000011 -
b11111110110001111100011110000011 d
b1111 C
b1111 S
b1110 R
b1001100 P
0H
b111110111111 :
b111110111111 0
b0 D
b1010100 +
b1010100 E
b0 U
0Z
b1110 Y
b111110111111 ^
b1010000 I
1!
#970
0!
#980
b11111111111111111111111111101100 G
b11111110111101000001011000100011 6
b11111110111101000001011000100011 i
b111111010011 3
b100000000000000000000111111010011 2
b11111111111111111111111111101100 <
bx Q
0B
b1011100 O
b11111110111101000001011000100011 -
b11111110111101000001011000100011 d
b1010100 I
b1111 Y
b1011000 +
b1011000 E
1$
1M
1@
b100 ?
b1100 S
b1111 R
b1010000 P
0>
1H
b111110101011 :
b111110101011 0
b11111111111111111111111111101100 D
1!
#990
0!
#1000
b111110111011 0
b111110111011 :
b111111001111 =
b111111001111 5
b11111111111111111111111111100110 G
b100001 4
b11111110000001000001001100100011 6
b11111110000001000001001100100011 i
b100001 Q
b111110101110 3
b111110101110 2
b100001 <
0B
b1100000 O
b100001 ]
b100001000000000000000000000000 "
b100001000000000000000000000000 #
b11111110000001000001001100100011 -
b11111110000001000001001100100011 d
0$
0M
1N
b1 ?
b1100 C
b1111 S
b1000 R
b1010100 P
0H
b1011100 +
b1011100 E
b100 U
1Z
bx ^
b1011000 I
1!
#1010
0!
#1020
b0 Q
b11111111111111111111111111101100 G
b111111001111 3
b111111001111 2
b0 <
b11111110110001000101011110000011 6
b11111110110001000101011110000011 i
b10000100000000 ]
b0 4
0B
b1100100 O
b11111110110001000101011110000011 -
b11111110110001000101011110000011 d
b1000010000000000100001 (
b1000010000000000100001 c
b111110111011 9
b111110111011 a
b1011100 I
b1 U
0Z
b1100 Y
0V
1)
1[
b100001 ^
b1100000 +
b1100000 E
b110 C
b0 S
b1011000 P
b111110110101 :
b111110110101 0
b11111111111111111111111111100110 D
1!
#1030
0!
#1040
b1000 G
b100001111001011110010011 6
b100001111001011110010011 i
b111111100011 3
b100000000000000000000111111100011 2
b11111111111111111111111111101100 <
bx Q
0B
b1101000 O
b0 ]
b100001111001011110010011 -
b100001111001011110010011 d
1$
1M
0N
b101 ?
b1111 C
b1100 S
b1011100 P
1H
b111110111011 :
b111110111011 0
b11111111111111111111111111101100 D
b1100100 +
b1100100 E
b1 \
b110 Y
b0 ^
b1100000 I
b11 '
b11 b
b0 (
b0 c
b111110110101 9
b111110110101 a
1!
#1050
0!
#1060
b11111111111111111111111111101100 G
b111111001111 4
b100001 =
b100001 5
b11111110111101000001011000100011 6
b11111110111101000001011000100011 i
b100001 ]
b11001 3
b11001 2
b1000 <
b10000100000000 Q
0B
b1101100 O
b11111110111101000001011000100011 -
b11111110111101000001011000100011 d
b1000010000000000000000 "
b1000010000000000000000 #
b1100100 I
b101 U
b11 \
1Z
b1111 Y
1V
0)
0[
bx ^
b1101000 +
b1101000 E
0$
0M
0@
b1 ?
b1000 S
b1111 R
b1100000 P
1>
b101001 :
b101001 0
b1000 D
1!
#1070
0!
#1080
b111111001111 =
b111111001111 5
b11111111111111111111111111101000 G
b10000100000000 4
b11111110000001000001010000100011 6
b11111110000001000001010000100011 i
b111111111111111111110111011001111 3
b111111111111111111110111011001111 2
b10000100000000 <
b10000100000000 Q
0B
b1110000 O
b0 ]
b11111110000001000001010000100011 -
b11111110000001000001010000100011 d
1N
1@
b1100 C
b1111 S
b1000 R
b1100100 P
0>
0H
b111110111011 :
b111110111011 0
b11111111111111111111111111101100 D
b1101100 +
b1101100 E
b1 U
b1 \
0Z
b10000100000000 ^
b1101000 I
1!
#1090
0!
#1100
b0 Q
b1111100 G
b111111001111 3
b111111001111 2
b0 <
b111110000000000000001101111 6
b111110000000000000001101111 i
b100001 ]
b0 4
0B
b1110100 O
b111110000000000000001101111 -
b111110000000000000001101111 d
b1100 '
b1100 b
b100001000000000010000100000000 (
b100001000000000010000100000000 c
b111110111011 9
b111110111011 a
b1101100 I
b11 \
b1100 Y
0V
1)
1[
b1110000 +
b1110000 E
b1000 C
b0 S
b1101000 P
b111110110111 :
b111110110111 0
b11111111111111111111111111101000 D
1!
#1110
0!
#1120
b11111111111111111111111111101110 G
b11111110111001000101011100000011 6
b11111110111001000101011100000011 i
b0 3
b0 2
b0 =
b0 5
b1110000 Q
1B
b11101000 O
b11111110111001000101011100000011 -
b11111110111001000101011100000011 d
0N
0@
b0 ?
b0 C
b11100 S
b0 R
b1101100 P
1J
b1111100 :
b1111100 0
b1111100 D
b1110100 +
b1110100 E
b1000 Y
b0 ^
b1110000 I
b0 (
b0 c
b111110110111 9
b111110110111 a
1!
#1130
0!
#1140
b11111111111111111111111111101100 G
b111110111111 4
b11111110110001000101011110000011 6
b11111110110001000101011110000011 i
b0 ]
1;
b111111001111 =
b111111001111 5
b111111100001 3
b100000000000000000000111111100001 2
b11111111111111111111111111101110 <
bx Q
0B
b11101100 O
b11111110110001000101011110000011 -
b11111110110001000101011110000011 d
b1110100 I
b0 U
b0 \
1W
b0 Y
1V
0)
0[
b1110000 ^
b11101000 +
b11101000 E
1$
1M
1@
b101 ?
b1110 C
b1110 S
b1000 R
b1110000 P
0J
1H
b111110111101 :
b111110111101 0
b11111111111111111111111111101110 D
1!
#1150
0!
#1160
b11111111111111111111111111101000 G
b0 4
b11111110100001000101011100000011 6
b11111110100001000101011100000011 i
b111111100011 3
b100000000000000000000111111100011 2
b11111111111111111111111111101100 <
b11110000 O
b1111111111111111 ]
11
b1111111111111111 "
b1111111111111111 #
b11111110100001000101011100000011 -
b11111110100001000101011100000011 d
b1111 C
b1100 S
b1110100 P
b111110111011 :
b111110111011 0
b11111111111111111111111111101100 D
b11101100 +
b11101100 E
b101 U
b1 \
1Z
1X
0W
b1110 Y
bx ^
b11101000 I
1_
1!
#1170
0!
#1180
b111 G
b111111001111 4
0B
b11100000000011110010011 6
b11100000000011110010011 i
b10000100000000 ]
0;
b111111100111 3
b100000000000000000000111111100111 2
b11111111111111111111111111101000 <
b11110100 O
b11100000000011110010011 -
b11100000000011110010011 d
b100001000000000000000000000000 "
b100001000000000000000000000000 #
1`
0_
b11101100 I
b11 \
0X
b1111 Y
b11110000 +
b11110000 E
b1110 C
b1000 S
b11101000 P
b111110110111 :
b111110110111 0
b11111111111111111111111111101000 D
1!
#1190
0!
#1200
b11111111111111111111111110000000 G
b0 4
b0 ]
b11111000111001111111000011100011 6
b11111000111001111111000011100011 i
b0 =
b0 5
b111111111111111111111111111111001 3
b111111111111111111111111111111001 2
b111 <
b111 Q
0B
b11111000 O
01
b0 "
b0 #
b11111000111001111111000011100011 -
b11111000111001111111000011100011 d
0$
0M
0@
b0 ?
b1111 C
b111 S
b0 R
b11101100 P
1>
b111 :
b111 0
b111 D
b11110100 +
b11110100 E
b1110 Y
b11110000 I
0`
1!
#1210
0!
#1220
b11111111111111111111111111100100 G
b11111110010001000001011110000011 6
b11111110010001000001011110000011 i
b111 =
b111 5
b111 3
b111 2
b0 <
bx Q
1B
b1110000 O
b11111110010001000001011110000011 -
b11111110010001000001011110000011 d
b11110100 I
b0 U
0Z
b1111 Y
b111 ^
b11111000 +
b11111000 E
1@
b111 ?
b1 C
b1110 S
b1111 R
b11110000 P
1A
0>
0H
b11111111111111111111111110000111 :
b11111111111111111111111110000111 0
b11111111111111111111111110000000 D
1!
#1230
0!
#1240
b111111001111 =
b111111001111 5
b10000 G
b1000001111001011110010011 6
b1000001111001011110010011 i
b111111101011 3
b100000000000000000000111111101011 2
b11111111111111111111111111100100 <
0B
b1110100 O
bx ]
1;
b1000001111001011110010011 -
b1000001111001011110010011 d
1$
1M
b1 ?
b1111 C
b100 S
b1000 R
b11110100 P
0A
1H
b111110110011 :
b111110110011 0
b11111111111111111111111111100100 D
b1110000 +
b1110000 E
b111 U
1W
b1 Y
0V
bx ^
b11111000 I
1!
#1250
0!
#1260
b11111111111111111111111111101110 G
b111 =
b111 5
b11111110111001000101011100000011 6
b11111110111001000101011100000011 i
11
b0 ]
b111111111111111111111111111110111 3
b111111111111111111111111111110111 2
b10000 <
b1110000000000000000 Q
b1111000 O
b11111110111001000101011100000011 -
b11111110111001000101011100000011 d
1_
b1110000 I
b1 U
1Z
1X
0W
b1111 Y
1V
b1110100 +
b1110100 E
0$
0M
0@
b10000 S
b1111 R
b11111000 P
1>
b10111 :
b10111 0
b10000 D
1!
#1270
0!
#1280
b11111111111111111111111111101100 G
b111111001111 =
b111111001111 5
b11111110110001000101011110000011 6
b11111110110001000101011110000011 i
b111111100001 3
b100000000000000000000111111100001 2
b11111111111111111111111111101110 <
bx Q
0B
b1111100 O
0;
b11111110110001000101011110000011 -
b11111110110001000101011110000011 d
1$
1M
1@
b101 ?
b1110 C
b1110 S
b1000 R
b1110000 P
0>
b111110111101 :
b111110111101 0
b11111111111111111111111111101110 D
b1111000 +
b1111000 E
0Z
0X
b1110000000000000000 ^
b1110100 I
1`
0_
1!
#1290
0!
#1300
b0 G
b111101110100011110110011 6
b111101110100011110110011 i
01
b1111111111111111 ]
b111111100011 3
b100000000000000000000111111100011 2
b11111111111111111111111111101100 <
0B
b10000000 O
b111101110100011110110011 -
b111101110100011110110011 d
b1111111111111111 "
b1111111111111111 #
0`
b1111000 I
b101 U
b1 \
1Z
b1110 Y
bx ^
b1111100 +
b1111100 E
b1111 C
b1100 S
b1110100 P
b111110111011 :
b111110111011 0
b11111111111111111111111111101100 D
1!
#1310
0!
#1320
b10000 G
b10000100000000 4
b1111111111111111 =
b1111111111111111 5
b1000001111001011110010011 6
b1000001111001011110010011 i
b1101111011111111 3
b1101111011111111 2
b10000100000000 <
b1101111011111111 Q
0B
b10000100 O
b10000100000000 ]
b100001000000000000000000000000 "
b100001000000000000000000000000 #
b1000001111001011110010011 -
b1000001111001011110010011 d
0$
0M
0@
b100 ?
b1111 S
b1110 R
b1111000 P
1>
0H
b1111111111111111 :
b1111111111111111 0
b0 D
b10000000 +
b10000000 E
b11 \
b1111 Y
b1111100 I
1!
#1330
0!
#1340
b0 4
b10000 G
b1101111011111111 =
b1101111011111111 5
b1000001111101011110010011 6
b1000001111101011110010011 i
b100001 ]
b1101111011101111 3
b1101111011101111 2
b10000 <
b11011110111111110000000000000000 Q
0B
b10001000 O
b1000001111101011110010011 -
b1000001111101011110010011 d
b10000000 I
b100 U
0Z
b1101111011111111 ^
b10000100 +
b10000100 E
b1 ?
b10000 S
b1111 R
b1111100 P
1H
b1101111100001111 :
b1101111100001111 0
b10000 D
1!
#1350
0!
#1360
b111011110111111101111111111110000 3
b11011110111111101111111111110000 2
b11011110111111110000000000010000 0
b11011110111111110000000000010000 :
b11011110111111110000000000000000 =
b11011110111111110000000000000000 5
b10000 G
b1000001111001011110010011 6
b1000001111001011110010011 i
b1101111011111111 Q
0B
b10001100 O
b10000100000000 ]
b1000001111001011110010011 -
b1000001111001011110010011 d
b101 ?
b10000000 P
b10001000 +
b10001000 E
b1 U
b11011110111111110000000000000000 ^
b10000100 I
1!
#1370
0!
#1380
b1101111011101111 3
b1101111011101111 2
b1101111100001111 0
b1101111100001111 :
b1101111011111111 =
b1101111011111111 5
b10000 G
b1000001000001111101011110010011 6
b1000001000001111101011110010011 i
b0 ]
b11011110111111110000000000000000 Q
0B
b10010000 O
b1000001000001111101011110010011 -
b1000001000001111101011110010011 d
b10001000 I
b101 U
b0 \
b1101111011111111 ^
b10001100 +
b10001100 E
b1 ?
b10000100 P
1!
#1390
0!
